{
  "cviceni": {
    "version": {
      "global": "<%= version %>",
      "content": 3
    },
    "katalog": [
      "test",
      "public"
    ],
    "language": "cs",
    "slug": "deset-let-po-revoluci-dekujeme-odejdete",
    "nazev": "Deset let po revoluci? Děkujeme, odejděte!",
    "autor": [
      "Pavla Sýkorová"
    ],
    "klicovaSlova": [
      "výzva “Děkujeme, odejděte”",
      "protesty",
      "opoziční smlouva",
      "historická změna",
      "analýza a interpretace fotografie a dobového textu"
    ],
    "anotace": {
      "ucitel": "Cvičení ukazuje reakci části společnosti na politický vývoj deset let po sametové revoluci. Žáci zkoumají fotografii z protestů na Václavském náměstí. Poté rozebírají výzvu „Děkujeme, odejděte” a zjišťují, proč protestoval na tu dobu nevídaný počet lidí. Hledají, s čím byli lidé spokojeni a co chtěli změnit. Cvičení lze spojit s výkladem vnímání sametové revoluce deset let poté, politické situace v 90. letech a opoziční smlouvy.",
      "verejna": "Fotografie z demonstrace. Poznáte transparent s přeškrtnutými tvářemi Václava Klause a Miloše Zemana. Ne, není to demonstrace z dnešní doby. Tohle se událo deset let po sametové revoluci. Co se stalo, že přišlo na Václavské náměstí přes padesát tisíc lidí? Začtěte se do manifestu „Děkujeme, odejděte” a zjistěte, za co děkovali a proč chtěli demisi."
    },
    "trvani": 25,
    "funkce": [
      "lupa",
      "cteni",
      "text",
      "svg",
      "kresleni",
      "text-editor"
    ],
    "pdf": {
      "doporucenyPostup": "deset-let-po-revoluci-dekujeme-odejdete.pdf"
    },
    "uvodniObrazek": "deset-let-po-revoluci-dekujeme-odejdete/pic-00-1280w.jpg",
    "id": 44
  },
  "slajd": [
    {
      "zadani": {
        "hlavni": "Prohlédněte si fotografii.",
        "rozsirujici": ""
      },
      "napoveda": {
        "aktivity": [
          "lupa"
        ],
        "text": "Při kliknutí levým tlačítkem do obrazu lupa přiblíží část obrazu ve výřezu."
      },
      "prameny": [
        "deset-let-po-revoluci-dekujeme-odejdete/pic-00-1280w.jpg"
      ],
      "popisky": [
        "Demonstrace na Václavském náměstí 3. prosince 1999 reagující na výzvu „Děkujeme, odejděte!“ ze 17. listopadu 1999. Na demonstraci podle odhadů dorazilo přes 50 000 lidí. Zdroj: Profimedia"
      ]
    },
    {
      "zadani": {
        "hlavni": "Označte důležité prvky na fotografii a popište je.",
        "rozsirujici": ""
      },
      "napoveda": {
        "aktivity": [
          "svg"
        ],
        "text": "Tahem myši levým tlačítkem kreslíte do obrazu. Nakliknutím na nakreslený tvar pravým tlačítkem otevřete menu s nabídkou úkonů: změnit barvu tvaru, (T) doplnit textový komentář, (X) smazat nakliknutý objekt."
      },
      "svg": {
        "soubory": [
          {
            "id": "svg-1",
            "soubor": "deset-let-po-revoluci-dekujeme-odejdete/pic-00-1280w.jpg",
            "funkce": [
              "text",
              "kresleni"
            ]
          }
        ]
      },
      "popisky": [
        "Demonstrace na Václavském náměstí 3. prosince 1999 reagující na výzvu „Děkujeme, odejděte!“ ze 17. listopadu 1999. Na demonstraci podle odhadů dorazilo přes 50 000 lidí. Zdroj: Profimedia"
      ]
    },
    {
      "class": [
        "half-slide-previous"
      ],
      "zadani": {
        "hlavni": "Za co děkovali? Proč chtěli odstoupení?",
        "rozsirujici": "Přečtěte si úryvky z výzvy Děkujeme, odejděte! Zeleně vyznačte, za co autoři děkovali. Červeně nejdůležitější důvody, proč chtěli odstoupení."
      },
      "napoveda": {
        "aktivity": [
          "text-editor"
        ],
        "text": "Levým tlačítkem myši zabarvíte zvolené slovo nebo slovní spojení. Otevře se vám nabídka, v níž zvolíte označovanou kategorii. Křížkem lze označení smazat."
      },
      "textovyEditor": {
        "texty": [
          {
            "id": 1,
            "text": "text-00",
            "funkce": "zvyraznovani",
            "menu": [
              {
                "title": "za co děkovali",
                "commandName": "akter-autori",
                "classes": "text-green",
                "command": "toggle-class",
                "commandOptions": {
                  "toggleClass": "node-selected node-text-green",
                  "closeBtn": true,
                  "comments": false,
                  "commentsClass": "text-green"
                }
              },
              {
                "title": "proč chtěli odstoupení",
                "commandName": "akter-duvody",
                "classes": "text-red",
                "command": "toggle-class",
                "commandOptions": {
                  "toggleClass": "node-selected node-text-red",
                  "closeBtn": true,
                  "comments": false,
                  "commentsClass": "text-red"
                }
              }
            ]
          }
        ]
      },
      "popisky": [
        "Děkujeme, odejděte! Prohlášení bývalých studentů k desátému výročí 17. listopadu 1989. Autoři: Josef Brož, Igor Chaun, Vlastimil Ježek, Martin Mejstřík, Šimon Pánek, Vráťa Řehák. Text podepsalo na 200 000 signatářů a signatářek. Zdroj: www.ceskapolitika.cz"
      ]
    },
    {
      "class": [
        "half-slide-active"
      ],
      "zadani": {
        "hlavni": "Interpretace pramenů.",
        "rozsirujici": ""
      },
      "napoveda": {
        "aktivity": [
          "text"
        ],
        "text": "Do boxu pro text zapisujete odpověď na otázku, nebo jiný komentář (dle zadání)."
      },
      "uzivatelskyText": {
        "otazky": [
          {
            "id": "text-vlastni-nazor",
            "zadani": "Charakterizujte náladu části společnosti deset let po sametové revoluci.",
            "instrukce": "Myslím si, že…",
            "maxDelka": 400
          }
        ]
      }
    }
  ]
}
