{
  "cviceni": {
    "version": {
      "global": "<%= version %>",
      "content": 1
    },
    "katalog": [],
    "language": "cs",
    "id": 13,
    "slug": "komu-psal-fucik",
    "nazev": "Komu psal Fučík?",
    "autor": [
      "Čeněk Pýcha"
    ],
    "klicovaSlova": [
      "válka",
      "odboj",
      "literatura",
      "komunismus",
      "politika",
      "analýza textu",
      "historický význam"
    ],
    "anotace": {
      "ucitel": "Žáci se seznámí s Reportáží psanou na oprátce a postavou Julia Fučíka. Analýza krátké ukázky se zaměřuje na otázku, komu byl text určen. Směřuje žáky k tomu, aby přemýšleli o žánrové charakteristice Reportáže. Právě charakteristika žánru vede žáky k základní interpretaci textu.",
      "verejna": "Je Reportáž psaná na oprátce opravdu reportáž? Nebo milostný dopis? Nebo politická deklarace? Napsal ji Fučík opravdu na oprátce? A jakou roli v tom hrála jeho manželka Gusta? Ověřte si to na vlastní oči."
    },
    "trvani": 36,
    "hlasky": {
      "noSelectedTags": "Zatím jsi neoznačil/a žádný text v editoru"
    },
    "funkce": [
      "lupa",
      "cteni",
      "text",
      "analyticka-tabulka",
      "text-editor"
    ],
    "pdf": {
      "doporucenyPostup": "komu-psal-fucik.pdf"
    },
    "uvodniObrazek": "komu-psal-fucik/pic-00-1024h.jpg"
  },
  "slajd": [
    {
      "class": "half-slide-previous",
      "zadani": {
        "hlavni": " Přečtěte si text.",
        "rozsirujici": ""
      },
      "napoveda": {
        "aktivity": [
          "lupa",
          "cteni"
        ],
        "text": "Při kliknutí levým tlačítkem do obrazu lupa přiblíží část obrazu ve výřezu."
      },
      "textovyEditor": {
        "galerie": [
          {
            "soubor": "komu-psal-fucik/pic-00-1024h.jpg"
          },
          {
            "soubor": "komu-psal-fucik/pic-01-1024h.jpg"
          },
          {
            "soubor": "komu-psal-fucik/pic-02-1024h.jpg"
          },
          {
            "soubor": "komu-psal-fucik/pic-03-1024h.jpg"
          }
        ],
        "texty": [
          {
            "id": 0,
            "text": "text-00",
            "funkce": "cteni"
          }
        ]
      },
      "popisky": [
        "Zdroj: Julius Fučík: Reportáž, psaná na oprátce. 1 vyd. faksimile rukopisu, Praha: Ottovo nakladatelství, 2008."
      ]
    },
    {
      "class": [
        "half-slide-active"
      ],
      "zadani": {
        "hlavni": "Odeberte nevhodná klíčová slova.",
        "rozsirujici": "Nechte označená jen ta klíčová slova, která podle vás správně vystihují žánr textu."
      },
      "napoveda": {
        "aktivity": [
          "tagy"
        ],
        "text": "Nyní jsou vybrána všechna klíčová slova, kliknutím můžete klíčové slovo odebrat. Pokud po odebrání kliknete na klíčové slovo, znovu ho přidáte."
      },
      "klicovaSlova": {
        "klicovaSlova": [
          {
            "id": "klicova-slova-1",
            "funkce": "selekce-",
            "tagy": [
              {
                "id": 1,
                "text": "milostný dopis"
              },
              {
                "id": 2,
                "text": "reportáž"
              },
              {
                "id": 3,
                "text": "politický komentář"
              },
              {
                "id": 4,
                "text": "esej"
              },
              {
                "id": 5,
                "text": "román"
              },
              {
                "id": 6,
                "text": "deník"
              }
            ]
          }
        ]
      }
    },
    {
      "zadani": {
        "hlavni": "Označte přídavná jména nebo pasáže textu, které charakterizují Gustu jako partnerku nebo Gustu jako političku.",
        "rozsirujici": ""
      },
      "napoveda": {
        "aktivity": [
          "text-editor"
        ],
        "text": "Levým tlačítkem myši zabarvíte zvolené slovo nebo slovní spojení. Otevře se vám nabídka, v níž zvolíte označovanou kategorii. Křížkem lze označení smazat, kliknutím levým tlačítkem na již označené slovo lze přidat textový komentář."
      },
      "textovyEditor": {
        "galerie": [
          {
            "soubor": "komu-psal-fucik/pic-00-1024h.jpg"
          },
          {
            "soubor": "komu-psal-fucik/pic-01-1024h.jpg"
          },
          {
            "soubor": "komu-psal-fucik/pic-02-1024h.jpg"
          },
          {
            "soubor": "komu-psal-fucik/pic-03-1024h.jpg"
          }
        ],
        "texty": [
          {
            "id": 1,
            "text": "text-00",
            "funkce": "zvyraznovani",
            "menu": [
              {
                "title": "Gusta jako partnerka",
                "commandName": "gusta-jako-partnerka",
                "classes": "text-red",
                "command": "toggle-class",
                "commandOptions": {
                  "toggleClass": "node-selected node-text-red",
                  "closeBtn": true,
                  "comments": false,
                  "commentsClass": "text-red"
                }
              },
              {
                "title": "Gusta jako politička",
                "commandName": "gusta-jako-politicka",
                "classes": "text-orange",
                "command": "toggle-class",
                "commandOptions": {
                  "toggleClass": "node-selected node-text-orange",
                  "closeBtn": true,
                  "comments": false,
                  "commentsClass": "text-orange"
                }
              }
            ]
          }
        ]
      },
      "popisky": [
        "Zdroj: Julius Fučík: Reportáž, psaná na oprátce. 1 vyd. faksimile rukopisu, Praha: Ottovo nakladatelství, 2008."
      ]
    },
    {
      "zadani": {
        "hlavni": "Vyznačte pasáže, ve kterých je charakterizován vztah Gusty a Julia.",
        "rozsirujici": ""
      },
      "napoveda": {
        "aktivity": [
          "text-editor"
        ],
        "text": "Levým tlačítkem myši zabarvíte zvolené slovo nebo slovní spojení. Otevře se vám nabídka, v níž zvolíte označovanou kategorii. Křížkem lze označení smazat, kliknutím levým tlačítkem na již označené slovo lze přidat textový komentář."
      },
      "textovyEditor": {
        "galerie": [
          {
            "soubor": "komu-psal-fucik/pic-00-1024h.jpg"
          },
          {
            "soubor": "komu-psal-fucik/pic-01-1024h.jpg"
          },
          {
            "soubor": "komu-psal-fucik/pic-02-1024h.jpg"
          },
          {
            "soubor": "komu-psal-fucik/pic-03-1024h.jpg"
          }
        ],
        "texty": [
          {
            "id": 2,
            "text": "text-00",
            "funkce": "zvyraznovani",
            "menu": [
              {
                "title": "vztah Gusty a Julia",
                "commandName": "vztah-gusty-julia",
                "classes": "text-blue",
                "command": "toggle-class",
                "commandOptions": {
                  "toggleClass": "node-selected node-text-blue",
                  "closeBtn": true,
                  "comments": false,
                  "commentsClass": "text-blue"
                }
              }
            ]
          }
        ]
      },
      "popisky": [
        "Zdroj: Julius Fučík: Reportáž, psaná na oprátce. 1 vyd. faksimile rukopisu, Praha: Ottovo nakladatelství, 2008."
      ]
    },
    {
      "class": "half-slide-previous",
      "zadani": {
        "hlavni": "Zamyslete se znovu nad žánrem.",
        "rozsirujici": "Nechte označené jen <b>jedno</b> klíčové slovo, které nejlépe vystihuje žánr textu, ostatní odznačte."
      },
      "napoveda": {
        "aktivity": [
          "tagy"
        ],
        "text": "Nyní jsou vybrána ta klíčová slova, které jste vybrali v předchozích krocích. Kliknutím můžete klíčové slovo odebrat. Pokud po odebrání kliknete na klíčové slovo, znovu ho přidáte."
      },
      "klicovaSlova": {
        "novaTabulka": {
          "tabulky": [
            {
              "id": "nova-tabulka-1",
              "dataFrom": [
                "1",
                "2"
              ],
              "columns": [
                {
                  "id": "uryvky",
                  "name": "",
                  "type": "",
                  "bg-color": "",
                  "values": []
                }
              ],
              "rows": [
                {
                  "id": "gusta-jako-partnerka",
                  "name": "Gusta jako partnerka",
                  "type": {
                    "name": "dup-text",
                    "type": "tag"
                  },
                  "bg-color": "",
                  "values": []
                },
                {
                  "id": "gusta-jako-politicka",
                  "name": "Gusta jako politička",
                  "type": {
                    "name": "dup-text",
                    "type": "tag"
                  },
                  "bg-color": "",
                  "values": []
                },
                {
                  "id": "vztah-gusty-julia",
                  "name": "Vztah Gusty a Julia",
                  "type": {
                    "name": "dup-text",
                    "type": "tag"
                  },
                  "bg-color": "",
                  "values": []
                }
              ]
            }
          ]
        },
        "klicovaSlova": [
          {
            "id": "klicova-slova-2",
            "funkce": "selekce-",
            "tagy": [],
            "inherit": {
              "onInit": true,
              "from": [
                "klicova-slova-1"
              ]
            }
          }
        ]
      }
    },
    {
      "class": [
        "half-slide-active"
      ],
      "zadani": {
        "hlavni": "Zamyslete se nad tím, komu Fučík psal.",
        "rozsirujici": "Využijte vaše vymezení žánru."
      },
      "napoveda": {
        "aktivity": [
          "text"
        ],
        "text": "Do boxu pro text zapisujete odpověď na otázku, nebo jiný komentář (dle zadání)."
      },
      "uzivatelskyText": {
        "otazky": [
          {
            "id": "text-1",
            "zadani": "",
            "instrukce": "Myslím si, že…",
            "minDelka": 0,
            "maxDelka": 400
          }
        ]
      }
    }
  ]
}
